{
  "WooCommerce": {
    "url": "https://emporiogamarra.com.pe",
    "consumerKey": "ck_debcf7078058cad5d6e509d2c422fde334aea655",
    "consumerSecret": "cs_945dd7285402ee5397d0eff18bacac3c630e65e6"
  },
  "HorizonLayout": [
    {
      "layout": "circleCategory" 
    },

    {
      "layout": "banner",
      "tag": 273
    }

  ],

  "VerticalLayout": {
    "name": "Recents",
    "layout": "simple"
  },
  
  "MainColor": "#3F51B5"
}
